﻿[
  {
    "UserId": 1,
    "Address": "7 Glendale Parkway",
    "City": "Zhoushan",
    "AddressType": "delivery"
  },
  {
    "UserId": 2,
    "Address": "6664 Hudson Plaza",
    "City": "Envigado",
    "PostalCode": "055428",
    "Notes": "neque aenean auctor gravida sem praesent id massa id nisl venenatis lacinia aenean sit amet justo morbi",
    "AddressType": "delivery"
  },
  {
    "UserId": 3,
    "Address": "84 Meadow Vale Avenue",
    "City": "Xique Xique",
    "PostalCode": "93950-000",
    "Notes": "morbi ut odio cras mi pede malesuada in imperdiet et commodo vulputate justo in blandit",
    "AddressType": "delivery"
  },
  {
    "UserId": 4,
    "Address": "1691 Clarendon Park",
    "City": "Heqian",
    "Notes": "quam fringilla rhoncus mauris enim leo rhoncus sed vestibulum sit amet cursus id turpis integer aliquet",
    "AddressType": "delivery"
  },
  {
    "UserId": 5,
    "Address": "8 Susan Avenue",
    "City": "Tsetsegnuur",
    "Notes": "mauris non ligula pellentesque ultrices phasellus id sapien in sapien iaculis congue vivamus metus arcu",
    "AddressType": "delivery"
  },
  {
    "UserId": 6,
    "Address": "42 Manley Parkway",
    "City": "Fucun",
    "AddressType": "delivery"
  },
  {
    "UserId": 7,
    "Address": "500 Spenser Alley",
    "City": "São Mateus",
    "PostalCode": "9700-555",
    "Notes": "rutrum at lorem integer tincidunt ante vel ipsum praesent blandit lacinia erat vestibulum sed magna at nunc",
    "AddressType": "delivery"
  },
  {
    "UserId": 8,
    "Address": "18993 Roth Plaza",
    "City": "Villa Bisonó",
    "PostalCode": "11105",
    "Notes": "vestibulum sit amet cursus id turpis integer aliquet massa id lobortis convallis tortor risus dapibus augue vel accumsan",
    "AddressType": "delivery"
  },
  {
    "UserId": 9,
    "Address": "07 Barnett Trail",
    "City": "Kebonan",
    "Notes": "tristique in tempus sit amet sem fusce consequat nulla nisl nunc nisl duis bibendum felis sed interdum venenatis turpis",
    "AddressType": "delivery"
  },
  {
    "UserId": 10,
    "Address": "130 Londonderry Junction",
    "City": "Bujumbura",
    "Notes": "duis at velit eu est congue elementum in hac habitasse platea dictumst morbi vestibulum velit id pretium iaculis",
    "AddressType": "delivery"
  },
  {
    "UserId": 11,
    "Address": "1 Gale Lane",
    "City": "Shaydon",
    "AddressType": "delivery"
  },
  {
    "UserId": 12,
    "Address": "8543 Northridge Street",
    "City": "Tovarnik",
    "PostalCode": "32249",
    "Notes": "vel lectus in quam fringilla rhoncus mauris enim leo rhoncus sed vestibulum sit amet cursus id turpis integer",
    "AddressType": "delivery"
  },
  {
    "UserId": 13,
    "Address": "7787 Monterey Court",
    "City": "Nasīrābād",
    "PostalCode": "77020",
    "Notes": "at velit eu est congue elementum in hac habitasse platea dictumst morbi vestibulum velit id pretium iaculis diam erat fermentum",
    "AddressType": "delivery"
  },
  {
    "UserId": 14,
    "Address": "283 Melrose Plaza",
    "City": "Tseel",
    "AddressType": "delivery"
  },
  {
    "UserId": 15,
    "Address": "3 Hallows Avenue",
    "City": "Chojnice",
    "PostalCode": "89-620",
    "Notes": "diam in magna bibendum imperdiet nullam orci pede venenatis non sodales sed tincidunt",
    "AddressType": "delivery"
  },
  {
    "UserId": 16,
    "Address": "0209 Mifflin Way",
    "City": "Illela",
    "AddressType": "delivery"
  },
  {
    "UserId": 17,
    "Address": "8265 Westerfield Park",
    "City": "Pandean",
    "AddressType": "delivery"
  },
  {
    "UserId": 18,
    "Address": "59 Dexter Plaza",
    "City": "Yala",
    "PostalCode": "95000",
    "AddressType": "delivery"
  },
  {
    "UserId": 19,
    "Address": "3 Nobel Place",
    "City": "Budapest",
    "PostalCode": "1147",
    "Notes": "sed magna at nunc commodo placerat praesent blandit nam nulla integer pede justo",
    "AddressType": "delivery"
  },
  {
    "UserId": 20,
    "Address": "0385 Cordelia Hill",
    "City": "Māsāl",
    "AddressType": "delivery"
  },
  {
    "UserId": 21,
    "Address": "58247 Northport Alley",
    "City": "Gengcheng",
    "Notes": "nulla sed accumsan felis ut at dolor quis odio consequat varius",
    "AddressType": "delivery"
  },
  {
    "UserId": 22,
    "Address": "46108 Paget Drive",
    "City": "Succha",
    "Notes": "mi pede malesuada in imperdiet et commodo vulputate justo in blandit ultrices enim lorem ipsum dolor sit",
    "AddressType": "delivery"
  },
  {
    "UserId": 23,
    "Address": "0812 Melody Drive",
    "City": "Huangyuan Chengguanzhen",
    "Notes": "consequat varius integer ac leo pellentesque ultrices mattis odio donec vitae nisi nam ultrices libero",
    "AddressType": "delivery"
  },
  {
    "UserId": 24,
    "Address": "5771 Nova Place",
    "City": "Bečmen",
    "AddressType": "delivery"
  },
  {
    "UserId": 25,
    "Address": "6543 Blue Bill Park Circle",
    "City": "Masjid",
    "AddressType": "delivery"
  },
  {
    "UserId": 26,
    "Address": "88943 Dapin Point",
    "City": "Hanlin",
    "Notes": "vulputate justo in blandit ultrices enim lorem ipsum dolor sit amet consectetuer adipiscing elit proin interdum mauris non",
    "AddressType": "delivery"
  },
  {
    "UserId": 27,
    "Address": "5291 Truax Trail",
    "City": "Khoa",
    "AddressType": "delivery"
  },
  {
    "UserId": 28,
    "Address": "3 Esch Trail",
    "City": "Strasbourg",
    "PostalCode": "67200",
    "Notes": "eu massa donec dapibus duis at velit eu est congue elementum in",
    "AddressType": "delivery"
  },
  {
    "UserId": 29,
    "Address": "057 Valley Edge Trail",
    "City": "Jutiapa",
    "PostalCode": "22001",
    "AddressType": "delivery"
  },
  {
    "UserId": 30,
    "Address": "72 Mayer Hill",
    "City": "Arwād",
    "AddressType": "delivery"
  },
  {
    "UserId": 1,
    "Address": "28959 David Pass",
    "City": "Shijie",
    "Notes": "bibendum felis sed interdum venenatis turpis enim blandit mi in porttitor pede justo eu massa donec dapibus duis at",
    "AddressType": "billing"
  },
  {
    "UserId": 2,
    "Address": "7774 Buhler Avenue",
    "City": "Italó",
    "PostalCode": "6271",
    "AddressType": "billing"
  },
  {
    "UserId": 3,
    "Address": "96351 Miller Junction",
    "City": "Laon",
    "PostalCode": "02019 CEDEX",
    "AddressType": "billing"
  },
  {
    "UserId": 4,
    "Address": "3702 Express Road",
    "City": "Dong’an",
    "AddressType": "billing"
  },
  {
    "UserId": 5,
    "Address": "50693 American Ash Center",
    "City": "Kham Sakae Saeng",
    "PostalCode": "30290",
    "AddressType": "billing"
  },
  {
    "UserId": 6,
    "Address": "69343 Eastlawn Hill",
    "City": "Daoukro",
    "AddressType": "billing"
  },
  {
    "UserId": 7,
    "Address": "75 Nova Avenue",
    "City": "North Cowichan",
    "PostalCode": "V9L",
    "AddressType": "billing"
  },
  {
    "UserId": 8,
    "Address": "2281 Nova Lane",
    "City": "Zheleznodorozhnyy",
    "PostalCode": "238411",
    "AddressType": "billing"
  },
  {
    "UserId": 9,
    "Address": "04 Rieder Hill",
    "City": "San Onofre",
    "PostalCode": "707018",
    "AddressType": "billing"
  },
  {
    "UserId": 10,
    "Address": "167 Di Loreto Avenue",
    "City": "Sabon Gari-Nangere",
    "Notes": "iaculis congue vivamus metus arcu adipiscing molestie hendrerit at vulputate vitae nisl aenean lectus",
    "AddressType": "billing"
  },
  {
    "UserId": 11,
    "Address": "2 Lighthouse Bay Pass",
    "City": "Mengxi",
    "AddressType": "billing"
  },
  {
    "UserId": 12,
    "Address": "35 Washington Avenue",
    "City": "Thành phố Bạc Liêu",
    "Notes": "enim blandit mi in porttitor pede justo eu massa donec dapibus duis at velit eu est congue elementum in hac",
    "AddressType": "billing"
  },
  {
    "UserId": 13,
    "Address": "33363 Scoville Avenue",
    "City": "Chai Badan",
    "PostalCode": "15130",
    "Notes": "varius integer ac leo pellentesque ultrices mattis odio donec vitae nisi nam ultrices libero non",
    "AddressType": "billing"
  },
  {
    "UserId": 14,
    "Address": "7 Thackeray Place",
    "City": "Huocheng",
    "Notes": "ipsum integer a nibh in quis justo maecenas rhoncus aliquam lacus morbi quis tortor id nulla ultrices aliquet",
    "AddressType": "billing"
  },
  {
    "UserId": 15,
    "Address": "0 Maple Drive",
    "City": "Taoyuan",
    "AddressType": "billing"
  },
  {
    "UserId": 16,
    "Address": "35035 Farragut Alley",
    "City": "Mzimba",
    "Notes": "fermentum donec ut mauris eget massa tempor convallis nulla neque libero convallis eget eleifend luctus ultricies eu",
    "AddressType": "billing"
  },
  {
    "UserId": 17,
    "Address": "09430 Sullivan Lane",
    "City": "Māsāl",
    "AddressType": "billing"
  },
  {
    "UserId": 18,
    "Address": "2 Messerschmidt Court",
    "City": "Jinbo",
    "Notes": "ut mauris eget massa tempor convallis nulla neque libero convallis eget eleifend luctus ultricies eu nibh",
    "AddressType": "billing"
  },
  {
    "UserId": 19,
    "Address": "76731 Scoville Parkway",
    "City": "Nuwaybi‘a",
    "AddressType": "billing"
  },
  {
    "UserId": 20,
    "Address": "23055 Golf Road",
    "City": "Viedma",
    "PostalCode": "8500",
    "Notes": "nunc nisl duis bibendum felis sed interdum venenatis turpis enim",
    "AddressType": "billing"
  },
  {
    "UserId": 21,
    "Address": "207 Warbler Junction",
    "City": "Baruny",
    "Notes": "ultrices posuere cubilia curae duis faucibus accumsan odio curabitur convallis duis consequat",
    "AddressType": "billing"
  },
  {
    "UserId": 22,
    "Address": "8 Service Parkway",
    "City": "Banī Mazār",
    "AddressType": "billing"
  },
  {
    "UserId": 23,
    "Address": "6836 Roth Drive",
    "City": "Mankono",
    "Notes": "ornare consequat lectus in est risus auctor sed tristique in tempus sit",
    "AddressType": "billing"
  },
  {
    "UserId": 24,
    "Address": "4484 Lukken Alley",
    "City": "Hatava",
    "Notes": "ornare consequat lectus in est risus auctor sed tristique in tempus sit",
    "AddressType": "billing"
  },
  {
    "UserId": 25,
    "Address": "805 Rigney Place",
    "City": "Frederico Westphalen",
    "PostalCode": "98400-000",
    "AddressType": "billing"
  },
  {
    "UserId": 26,
    "Address": "67147 Drewry Avenue",
    "City": "Dadong",
    "AddressType": "billing"
  },
  {
    "UserId": 27,
    "Address": "89891 Independence Plaza",
    "City": "Slobidka",
    "AddressType": "billing"
  },
  {
    "UserId": 28,
    "Address": "714 Sheridan Way",
    "City": "Liquica",
    "Notes": "sit amet eros suspendisse accumsan tortor quis turpis sed ante",
    "AddressType": "billing"
  },
  {
    "UserId": 29,
    "Address": "35 Becker Plaza",
    "City": "Ulbroka",
    "Notes": "aliquam non mauris morbi non lectus aliquam sit amet diam in magna bibendum imperdiet nullam orci",
    "AddressType": "billing"
  },
  {
    "UserId": 30,
    "Address": "6 Merry Crossing",
    "City": "Nelson",
    "PostalCode": "7045",
    "AddressType": "billing"
  }
]